{
    "tags" : "oam-local-ipv4-address",
    "name" : "create_netbox_ip",
    "property" : {
      "description" : "netbox ip",
      "type" : "dt-netbox-ip"
    },
    "updated-by" : "adetalhouet",
    "sources" : {
      "sdnc" : {
        "type" : "source-rest",
        "properties" : {
          "type" : "JSON",
          "verb" : "POST",
          "endpoint-selector" : "ipam-1",
          "url-path" : "/api/ipam/prefixes/$prefix-id/available-ips/",
          "path" : "",
          "input-key-mapping" : {
            "prefix-id" : "prefix-id"
          },
          "output-key-mapping" : {
            "address" : "address",
            "id" : "id"
          },
          "key-dependencies" : [ "prefix-id" ]
        }
      }
    }
  }
