{
	"tags": "vfw_name_0",
	"name": "vfw_name_0",
	"property": {
		"description": "vfw_name_0",
		"type": "string"
	},
	"updated-by": "Singal, Kapil <ks220y@att.com>",
	"sources": {
		"input": {
			"type": "source-input"
		},
		"default": {
			"type": "source-default",
			"properties": {}
		},
		"sdnc": {
			"type": "source-rest",
			"properties": {
				"verb": "GET",
				"type": "JSON",
				"url-path": "/restconf/config/GENERIC-RESOURCE-API:services/service/$service-instance-id/service-data/vnfs/vnf/$vnf-id/vnf-data/vnf-topology/vnf-parameters-data/param/vfw_name_0",
				"path": "/param/0/value",
				"input-key-mapping": {
					"service-instance-id": "service-instance-id",
					"vnf-id": "vnf-id"
				},
				"output-key-mapping": {
					"vfw_name_0": "value"
				},
				"key-dependencies": [
					"service-instance-id",
					"vnf-id"
				]
			}
		}
	}
}